id,name,model_id:id,group_id:id,perm_read,perm_write,perm_create,perm_unlink

access_bms_clinic_samplemedicine_drug_management_manager_1,access_bms_clinic_samplemedicine_drug_management_manager,model_bms_clinic_samplemedicine,bms_clinic.bms_clinic_server_drug_management_manager,1,1,1,0
access_bms_clinic_samplemedicine_drug_management_employee_1,access_bms_clinic_samplemedicine_drug_management_employee,model_bms_clinic_samplemedicine,bms_clinic.bms_clinic_server_drug_management_employee,1,0,0,0

access_bms_clinic_advice_drug_management_manager_1,access_bms_clinic_advice_drug_management_manager,model_bms_clinic_advice,bms_clinic.bms_clinic_server_drug_management_manager,1,1,1,0
access_bms_clinic_advice_drug_management_employee_1,access_bms_clinic_advice_drug_management_employee,model_bms_clinic_advice,bms_clinic.bms_clinic_server_drug_management_employee,1,0,0,0

access_bms_clinic_use_drug_management_manager_1,access_bms_clinic_use_drug_management_manager,model_bms_clinic_use,bms_clinic.bms_clinic_server_drug_management_manager,1,1,1,0
access_bms_clinic_use_drug_management_employee_1,access_bms_clinic_use_drug_management_employee,model_bms_clinic_use,bms_clinic.bms_clinic_server_drug_management_employee,1,0,0,0

access_bms_clinic_preprocess_detail_drug_management_manager_1,access_bms_clinic_preprocess_detail_drug_management_manager,model_bms_clinic_preprocess_detail,bms_clinic.bms_clinic_server_drug_management_manager,1,1,1,0
access_bms_clinic_preprocess_detail_drug_management_employee_1,access_bms_clinic_preprocess_detail_drug_management_employee,model_bms_clinic_preprocess_detail,bms_clinic.bms_clinic_server_drug_management_employee,1,0,0,0

access_bms_clinic_primaryinformation_drug_management_manager_1,access_bms_clinic_primaryinformation_drug_management_manager,model_bms_clinic_primaryinformation,bms_clinic.bms_clinic_server_drug_management_manager,1,0,0,0
access_bms_clinic_primaryinformation_drug_management_employee_1,access_bms_clinic_primaryinformation_drug_management_employee,model_bms_clinic_primaryinformation,bms_clinic.bms_clinic_server_drug_management_employee,1,0,0,0

access_bms_clinic_remedy_drug_management_manager_1,access_bms_clinic_remedy_drug_management_manager,model_bms_clinic_remedy,bms_clinic.bms_clinic_server_drug_management_manager,1,0,0,0
access_bms_clinic_remedy_drug_management_employee_1,access_bms_clinic_remedy_drug_management_employee,model_bms_clinic_remedy,bms_clinic.bms_clinic_server_drug_management_employee,1,0,0,0

access_bms_clinic_clsresult_drug_management_manager_1,access_bms_clinic_clsresult_drug_management_manager,model_bms_clinic_clsresult,bms_clinic.bms_clinic_server_drug_management_manager,1,0,0,0
access_bms_clinic_clsresult_drug_management_employee_1,access_bms_clinic_clsresult_drug_management_employee,model_bms_clinic_clsresult,bms_clinic.bms_clinic_server_drug_management_employee,1,0,0,0

access_bms_clinic_monocuminformation_drug_management_manager_1,access_bms_clinic_monocuminformation_drug_management_manager,model_bms_clinic_monocuminformation,bms_clinic.bms_clinic_server_drug_management_manager,1,0,0,0
access_bms_clinic_monocuminformation_drug_management_employee_1,access_bms_clinic_monocuminformation_drug_management_employee,model_bms_clinic_monocuminformation,bms_clinic.bms_clinic_server_drug_management_employee,1,0,0,0


access_bms_clinic_result_demo_manager_1,access_bms_clinic_result_demo_manager,model_bms_clinic_result_demo,bms_clinic.bms_clinic_server_image_conclusions_manager,1,1,1,0
access_bms_clinic_result_demo_employee_1,access_bms_clinic_result_demo_employee,model_bms_clinic_result_demo,bms_clinic.bms_clinic_server_image_conclusions_employee,1,0,0,0

access_bms_clinic_preprocess_image_conclusions_manager_1,access_bms_clinic_preprocess_image_conclusions_manager,model_bms_clinic_preprocess,bms_clinic.bms_clinic_server_image_conclusions_manager,1,1,1,0
access_bms_clinic_preprocess_image_conclusions_employee_1,access_bms_clinic_preprocess_image_conclusions_employee,model_bms_clinic_preprocess,bms_clinic.bms_clinic_server_image_conclusions_employee,1,0,0,0

access_bms_clinic_clsresult_manager_1,access_bms_clinic_clsresult_manager,model_bms_clinic_clsresult,bms_clinic.bms_clinic_server_image_conclusions_manager,1,1,1,0
access_bms_clinic_clsresult_employee_1,access_bms_clinic_clsresult_employee,model_bms_clinic_clsresult,bms_clinic.bms_clinic_server_image_conclusions_employee,1,0,0,0

access_bms_clinic_preprocess_detail_manager_1,access_bms_clinic_preprocess_detail_manager,model_bms_clinic_preprocess_detail,bms_clinic.bms_clinic_server_image_conclusions_manager,1,1,1,0
access_bms_clinic_preprocess_detail_employee_1,access_bms_clinic_preprocess_detail_employee,model_bms_clinic_preprocess_detail,bms_clinic.bms_clinic_server_image_conclusions_employee,1,0,0,0

access_bms_clinic_primaryinformation_cls_manager_1,access_bms_clinic_primaryinformation_cls_manager,model_bms_clinic_primaryinformation,bms_clinic.bms_clinic_server_image_conclusions_manager,1,1,0,0
access_bms_clinic_primaryinformation_cls_employee_1,access_bms_clinic_primaryinformation_cls_employee,model_bms_clinic_primaryinformation,bms_clinic.bms_clinic_server_image_conclusions_employee,1,0,0,0

access_bms_clinic_monocuminformation_cls_manager_1,access_bms_clinic_monocuminformation_cls_manager,model_bms_clinic_monocuminformation,bms_clinic.bms_clinic_server_image_conclusions_manager,1,0,0,0
access_bms_clinic_monocuminformation_cls_employee_1,access_bms_clinic_monocuminformation_cls_employee,model_bms_clinic_monocuminformation,bms_clinic.bms_clinic_server_image_conclusions_employee,1,0,0,0

access_bms_clinic_preprocess_detail_cls_manager_1,access_bms_clinic_preprocess_detail_cls_manager,model_bms_clinic_preprocess_detail,bms_clinic.bms_clinic_server_image_conclusions_manager,1,0,0,0
access_bms_clinic_preprocess_detail_cls_employee_1,access_bms_clinic_preprocess_detail_cls_employee,model_bms_clinic_preprocess_detail,bms_clinic.bms_clinic_server_image_conclusions_employee,1,0,0,0

access_bms_clinic_remedy_cls_manager_1,access_bms_clinic_remedy_cls_manager,model_bms_clinic_remedy,bms_clinic.bms_clinic_server_image_conclusions_manager,1,0,0,0
access_bms_clinic_remedy_cls_employee_1,access_bms_clinic_remedy_cls_employee,model_bms_clinic_remedy,bms_clinic.bms_clinic_server_image_conclusions_employee,1,0,0,0

access_bms_clinic_use_cls_manager_1,access_bms_clinic_use_cls_manager,model_bms_clinic_use,bms_clinic.bms_clinic_server_image_conclusions_manager,1,0,0,0
access_bms_clinic_use_cls_employee_1,access_bms_clinic_use_cls_employee,model_bms_clinic_use,bms_clinic.bms_clinic_server_image_conclusions_employee,1,0,0,0


access_bms_clinic_remedy_sale_manager_1,access_bms_clinic_remedy_sale_manager,model_bms_clinic_remedy,bms_clinic.bms_clinic_server_sale_manager,1,1,1,0
access_bms_clinic_remedy_sale_employee_1,access_bms_clinic_remedy_sale_employee,model_bms_clinic_remedy,bms_clinic.bms_clinic_server_sale_employee,1,1,1,0

access_bms_clinic_samplemedicine_sale_manager_1,access_bms_clinic_samplemedicine_sale_manager,model_bms_clinic_samplemedicine,bms_clinic.bms_clinic_server_sale_manager,1,1,1,0
access_bms_clinic_samplemedicine_sale_employee_1,access_bms_clinic_samplemedicine_sale_employee,model_bms_clinic_samplemedicine,bms_clinic.bms_clinic_server_sale_employee,1,0,0,0

access_bms_clinic_use_sale_manager_1,access_bms_clinic_use_sale_manager,model_bms_clinic_use,bms_clinic.bms_clinic_server_sale_manager,1,1,1,0
access_bms_clinic_use_sale_employee_1,access_bms_clinic_use_sale_employee,model_bms_clinic_use,bms_clinic.bms_clinic_server_sale_employee,1,0,0,0

access_bms_clinic_advice_sale_manager_1,access_bms_clinic_advice_sale_manager,model_bms_clinic_advice,bms_clinic.bms_clinic_server_sale_manager,1,1,0,0
access_bms_clinic_advice_sale_employee_1,access_bms_clinic_advice_sale_employee,model_bms_clinic_advice,bms_clinic.bms_clinic_server_sale_employee,1,0,0,0

access_bms_clinic_monocuminformation_manager_1,bms_clinic_monocuminformation_manager,model_bms_clinic_monocuminformation,bms_clinic.bms_clinic_server_sale_manager,1,1,1,0
access_bms_clinic_monocuminformation_employee_1,bms_clinic_monocuminformation_employee,model_bms_clinic_monocuminformation,bms_clinic.bms_clinic_server_sale_employee,1,1,1,0

access_bms_clinic_preprocess_detail_manager_1,bms_clinic_preprocess_detail_manager,model_bms_clinic_preprocess_detail,bms_clinic.bms_clinic_server_sale_manager,1,1,1,0
access_bms_clinic_preprocess_detail_employee_1,bms_clinic_preprocess_detail_employee,model_bms_clinic_preprocess_detail,bms_clinic.bms_clinic_server_sale_employee,1,0,0,0

access_bms_clinic_primaryinformation_sale_manager_1,bms_bms_clinic_primaryinformation_sale_manager,model_bms_clinic_primaryinformation,bms_clinic.bms_clinic_server_sale_manager,1,1,0,0
access_bms_clinic_primaryinformation_sale_employee_1,bms_bms_clinic_primaryinformation_sale_employee,model_bms_clinic_primaryinformation,bms_clinic.bms_clinic_server_sale_employee,1,0,0,0

access_bms_clinic_clsresult_sale_manager_1,bms_bms_clinic_clsresult_sale_manager,model_bms_clinic_clsresult,bms_clinic.bms_clinic_server_sale_manager,1,0,0,0
access_bms_clinic_clsresult_sale_employee_1,bms_bms_clinic_clsresult_sale_employee,model_bms_clinic_clsresult,bms_clinic.bms_clinic_server_sale_employee,1,0,0,0


access_bms_clinic_primaryinformation_manager_1,bms_clinic_primaryinformation_manager,model_bms_clinic_primaryinformation,bms_clinic.bms_clinic_server_Reception_manager,1,1,1,0
access_bms_clinic_primaryinformation_employee_1,bms_clinic_primaryinformation_employee,model_bms_clinic_primaryinformation,bms_clinic.bms_clinic_server_Reception_employee,1,1,1,0

access_bms_clinic_resourcerefcustom_manager_1,access_bms_clinic_resourcerefcustom_manager,model_bms_clinic_resourcerefcustom,bms_clinic.bms_clinic_server_Reception_manager,1,0,1,0
access_bms_clinic_resourcerefcustom_employee_1,access_bms_clinic_resourcerefcustom_employee,model_bms_clinic_resourcerefcustom,bms_clinic.bms_clinic_server_Reception_employee,1,0,1,0

access_bms_clinic_preprocess_manager_1,access_bms_clinic_preprocess_manager,model_bms_clinic_preprocess,bms_clinic.bms_clinic_server_Reception_manager,1,0,1,0
access_bms_clinic_preprocess_employee_1,access_bms_clinic_preprocess_employee,model_bms_clinic_preprocess,bms_clinic.bms_clinic_server_Reception_employee,1,0,1,0

access_bms_clinic_remedy_Reception_manager_1,access_bms_clinic_remedy_Reception_manager,model_bms_clinic_remedy,bms_clinic.bms_clinic_server_Reception_manager,1,1,1,0
access_bms_clinic_remedy_Reception_employee_1,access_bms_clinic_remedy_Reception_employee,model_bms_clinic_remedy,bms_clinic.bms_clinic_server_Reception_employee,1,1,1,0

access_bms_clinic_clsresult_Reception_manager_1,access_bms_clinic_clsresult_Reception_manager,model_bms_clinic_clsresult,bms_clinic.bms_clinic_server_Reception_manager,1,0,1,0
access_bms_clinic_clsresult_Reception_employee_1,access_bms_clinic_clsresult_Reception_employee,model_bms_clinic_clsresult,bms_clinic.bms_clinic_server_Reception_employee,1,0,1,0

access_bms_clinic_monocuminformation_Reception_manager_1,bms_clinic_monocuminformation_Reception_manager,model_bms_clinic_monocuminformation,bms_clinic.bms_clinic_server_Reception_manager,1,0,1,0
access_bms_clinic_monocuminformation_Reception_employee_1,bms_clinic_monocuminformation_Reception_employee,model_bms_clinic_monocuminformation,bms_clinic.bms_clinic_server_Reception_employee,1,0,1,0

access_bms_clinic_result_demo_Reception_manager_1,access_bms_clinic_result_demo_Reception_manager,model_bms_clinic_result_demo,bms_clinic.bms_clinic_server_Reception_manager,1,1,1,0
access_bms_clinic_result_demo_Reception_employee_1,access_bms_clinic_result_demo_Reception_employee,model_bms_clinic_result_demo,bms_clinic.bms_clinic_server_Reception_employee,1,1,0,0

access_bms_clinic_use_Reception_manager_1,access_bms_clinic_use_Reception_manager,model_bms_clinic_use,bms_clinic.bms_clinic_server_Reception_manager,1,1,1,0
access_bms_clinic_use_Reception_employee_1,access_bms_clinic_use_Reception_employee,model_bms_clinic_use,bms_clinic.bms_clinic_server_Reception_employee,1,1,0,0

access_bms_clinic_Reception_samplemedicine_manager_1,access_bms_clinic_samplemedicine_Reception_manager,model_bms_clinic_samplemedicine,bms_clinic.bms_clinic_server_Reception_manager,1,1,1,0
access_bms_clinic_Reception_samplemedicine_employee_1,access_bms_clinic_samplemedicine_Reception_employee,model_bms_clinic_samplemedicine,bms_clinic.bms_clinic_server_Reception_employee,1,1,0,0

access_bms_clinic_preprocess_detail_Reception_manager_1,access_bms_clinic_preprocess_detail_Reception_manager,model_bms_clinic_preprocess_detail,bms_clinic.bms_clinic_server_Reception_manager,1,1,1,0
access_bms_clinic_preprocess_detail_Reception_employee_1,access_bms_clinic_preprocess_detail_Reception_employee,model_bms_clinic_preprocess_detail,bms_clinic.bms_clinic_server_Reception_employee,1,1,1,0

access_bms_clinic_advice_Reception_manager_1,access_bms_clinic_advice_Reception_manager,model_bms_clinic_advice,bms_clinic.bms_clinic_server_Reception_manager,1,0,0,0
access_bms_clinic_advice_Reception_employee_1,access_bms_clinic_advice_Reception_employee,model_bms_clinic_advice,bms_clinic.bms_clinic_server_Reception_employee,1,0,0,0


access_bms_clinic_primaryinformation_report_manager_1,bms_clinic_primaryinformation_manager,model_bms_clinic_primaryinformation,bms_clinic.bms_clinic_server_report_manager,1,0,0,0
access_bms_clinic_primaryinformation_report_employee_1,bms_clinic_primaryinformation_employee,model_bms_clinic_primaryinformation,bms_clinic.bms_clinic_server_report_employee,1,0,0,0

access_bms_clinic_remedy_report_manager_1,access_bms_clinic_remedy_Reception_manager,model_bms_clinic_remedy,bms_clinic.bms_clinic_server_report_manager,1,0,0,0
access_bms_clinic_remedy_report_employee_1,access_bms_clinic_remedy_Reception_employee,model_bms_clinic_remedy,bms_clinic.bms_clinic_server_report_employee,1,0,0,0

access_bms_clinic_clsresult_report_manager_1,access_bms_clinic_clsresult_report_manager,model_bms_clinic_clsresult,bms_clinic.bms_clinic_server_report_manager,1,0,0,0
access_bms_clinic_clsresult_report_employee_1,access_bms_clinic_clsresult_report_employee,model_bms_clinic_clsresult,bms_clinic.bms_clinic_server_report_employee,1,0,0,0

access_bms_clinic_monocuminformation_report_manager_1,access_bms_clinic_monocuminformation_report_manager,model_bms_clinic_monocuminformation,bms_clinic.bms_clinic_server_report_manager,1,0,0,0
access_bms_clinic_monocuminformation_report_employee_1,access_bms_clinic_monocuminformation_report_employee,model_bms_clinic_monocuminformation,bms_clinic.bms_clinic_server_report_employee,1,0,0,0

access_bms_clinic_preprocess_detail_report_manager_1,access_bms_clinic_preprocess_detail_report_manager,model_bms_clinic_preprocess_detail,bms_clinic.bms_clinic_server_report_manager,1,0,0,0
access_bms_clinic_preprocess_detail_report_employee_1,access_bms_clinic_preprocess_detail_report_employee,model_bms_clinic_preprocess_detail,bms_clinic.bms_clinic_server_report_employee,1,0,0,0

access_bms_clinic_use_report_manager_1,access_bms_clinic_use_report_manager,model_bms_clinic_use,bms_clinic.bms_clinic_server_report_manager,1,0,0,0
access_bms_clinic_use_report_employee_1,access_bms_clinic_use_report_employee,model_bms_clinic_use,bms_clinic.bms_clinic_server_report_employee,1,0,0,0

access_bms_clinic_resourcerefcustom_other_category_manager_1,access_bms_clinic_resourcerefcustom_other_category_manager,model_bms_clinic_resourcerefcustom,bms_clinic.bms_clinic_server_other_category_manager,1,1,1,0
access_bms_clinic_resourcerefcustom_other_category_employee_1,access_bms_clinic_resourcerefcustom_other_category_employee,model_bms_clinic_resourcerefcustom,bms_clinic.bms_clinic_server_other_category_employee,1,0,1,0

access_bms_clinic_preprocess_other_category_manager_1,access_bms_clinic_preprocess_other_category_manager,model_bms_clinic_preprocess,bms_clinic.bms_clinic_server_other_category_manager,1,1,1,0
access_bms_clinic_preprocess_other_category_employee_1,access_bms_clinic_preprocess_other_category_employee,model_bms_clinic_preprocess,bms_clinic.bms_clinic_server_other_category_employee,1,0,1,0

access_bms_clinic_primaryinformation_service_management_manager_1,bms_clinic_primaryinformation_manager,model_bms_clinic_primaryinformation,bms_clinic.bms_clinic_server_service_management_manager,1,0,0,0
access_bms_clinic_primaryinformation_service_management_employee_1,bms_clinic_primaryinformation_employee,model_bms_clinic_primaryinformation,bms_clinic.bms_clinic_server_service_management_employee,1,0,0,0

access_bms_clinic_samplemedicine_other_category_manager_1,bms_clinic_samplemedicine_other_category_manager,model_bms_clinic_samplemedicine,bms_clinic.bms_clinic_server_other_category_manager,1,1,1,0
access_bms_clinic_samplemedicine_other_category_employee_1,bms_clinic_samplemedicine_other_category_employee,model_bms_clinic_samplemedicine,bms_clinic.bms_clinic_server_other_category_employee,1,1,1,0